{
  "count": 1302,
  "next": "https://pokeapi.co/api/v2/pokemon?offset=20&limit=20",
  "previous": null,
  "results": [
    {
      "name": "bulbasaur",
      "url": "https://pokeapi.co/api/v2/pokemon/1/"
    },
    {
      "name": "ivysaur",
      "url": "https://pokeapi.co/api/v2/pokemon/2/"
    },
    {
      "name": "venusaur",
      "url": "https://pokeapi.co/api/v2/pokemon/3/"
    },
    {
      "name": "charmander",
      "url": "https://pokeapi.co/api/v2/pokemon/4/"
    },
    {
      "name": "charmeleon",
      "url": "https://pokeapi.co/api/v2/pokemon/5/"
    },
    {
      "name": "charizard",
      "url": "https://pokeapi.co/api/v2/pokemon/6/"
    },
    {
      "name": "squirtle",
      "url": "https://pokeapi.co/api/v2/pokemon/7/"
    },
    {
      "name": "wartortle",
      "url": "https://pokeapi.co/api/v2/pokemon/8/"
    },
    {
      "name": "blastoise",
      "url": "https://pokeapi.co/api/v2/pokemon/9/"
    },
    {
      "name": "caterpie",
      "url": "https://pokeapi.co/api/v2/pokemon/10/"
    },
    {
      "name": "metapod",
      "url": "https://pokeapi.co/api/v2/pokemon/11/"
    },
    {
      "name": "butterfree",
      "url": "https://pokeapi.co/api/v2/pokemon/12/"
    },
    {
      "name": "weedle",
      "url": "https://pokeapi.co/api/v2/pokemon/13/"
    },
    {
      "name": "kakuna",
      "url": "https://pokeapi.co/api/v2/pokemon/14/"
    },
    {
      "name": "beedrill",
      "url": "https://pokeapi.co/api/v2/pokemon/15/"
    },
    {
      "name": "pidgey",
      "url": "https://pokeapi.co/api/v2/pokemon/16/"
    },
    {
      "name": "pidgeotto",
      "url": "https://pokeapi.co/api/v2/pokemon/17/"
    },
    {
      "name": "pidgeot",
      "url": "https://pokeapi.co/api/v2/pokemon/18/"
    },
    {
      "name": "rattata",
      "url": "https://pokeapi.co/api/v2/pokemon/19/"
    },
    {
      "name": "raticate",
      "url": "https://pokeapi.co/api/v2/pokemon/20/"
    }
  ]
}



{
    "count": 1302,
    "next": "https://pokeapi.co/api/v2/pokemon?offset=25&limit=25",
    "previous": null,
    "results": [
        {
            "name": "bulbasaur",
            "url": "https://pokeapi.co/api/v2/pokemon/1/"
        },
        {
            "name": "ivysaur",
            "url": "https://pokeapi.co/api/v2/pokemon/2/"
        },
        {
            "name": "venusaur",
            "url": "https://pokeapi.co/api/v2/pokemon/3/"
        },
        {
            "name": "charmander",
            "url": "https://pokeapi.co/api/v2/pokemon/4/"
        },
        {
            "name": "charmeleon",
            "url": "https://pokeapi.co/api/v2/pokemon/5/"
        },
        {
            "name": "charizard",
            "url": "https://pokeapi.co/api/v2/pokemon/6/"
        },
        {
            "name": "squirtle",
            "url": "https://pokeapi.co/api/v2/pokemon/7/"
        },
        {
            "name": "wartortle",
            "url": "https://pokeapi.co/api/v2/pokemon/8/"
        },
        {
            "name": "blastoise",
            "url": "https://pokeapi.co/api/v2/pokemon/9/"
        },
        {
            "name": "caterpie",
            "url": "https://pokeapi.co/api/v2/pokemon/10/"
        },
        {
            "name": "metapod",
            "url": "https://pokeapi.co/api/v2/pokemon/11/"
        },
        {
            "name": "butterfree",
            "url": "https://pokeapi.co/api/v2/pokemon/12/"
        },
        {
            "name": "weedle",
            "url": "https://pokeapi.co/api/v2/pokemon/13/"
        },
        {
            "name": "kakuna",
            "url": "https://pokeapi.co/api/v2/pokemon/14/"
        },
        {
            "name": "beedrill",
            "url": "https://pokeapi.co/api/v2/pokemon/15/"
        },
        {
            "name": "pidgey",
            "url": "https://pokeapi.co/api/v2/pokemon/16/"
        },
        {
            "name": "pidgeotto",
            "url": "https://pokeapi.co/api/v2/pokemon/17/"
        },
        {
            "name": "pidgeot",
            "url": "https://pokeapi.co/api/v2/pokemon/18/"
        },
        {
            "name": "rattata",
            "url": "https://pokeapi.co/api/v2/pokemon/19/"
        },
        {
            "name": "raticate",
            "url": "https://pokeapi.co/api/v2/pokemon/20/"
        },
        {
            "name": "spearow",
            "url": "https://pokeapi.co/api/v2/pokemon/21/"
        },
        {
            "name": "fearow",
            "url": "https://pokeapi.co/api/v2/pokemon/22/"
        },
        {
            "name": "ekans",
            "url": "https://pokeapi.co/api/v2/pokemon/23/"
        },
        {
            "name": "arbok",
            "url": "https://pokeapi.co/api/v2/pokemon/24/"
        },
        {
            "name": "pikachu",
            "url": "https://pokeapi.co/api/v2/pokemon/25/"
        }
    ]
}




{
    "count": 1302,
    "next": "https://pokeapi.co/api/v2/pokemon?offset=125&limit=25",
    "previous": "https://pokeapi.co/api/v2/pokemon?offset=75&limit=25",
    "results": [
        {
            "name": "electrode",
            "url": "https://pokeapi.co/api/v2/pokemon/101/"
        },
        {
            "name": "exeggcute",
            "url": "https://pokeapi.co/api/v2/pokemon/102/"
        },
        {
            "name": "exeggutor",
            "url": "https://pokeapi.co/api/v2/pokemon/103/"
        },
        {
            "name": "cubone",
            "url": "https://pokeapi.co/api/v2/pokemon/104/"
        },
        {
            "name": "marowak",
            "url": "https://pokeapi.co/api/v2/pokemon/105/"
        },
        {
            "name": "hitmonlee",
            "url": "https://pokeapi.co/api/v2/pokemon/106/"
        },
        {
            "name": "hitmonchan",
            "url": "https://pokeapi.co/api/v2/pokemon/107/"
        },
        {
            "name": "lickitung",
            "url": "https://pokeapi.co/api/v2/pokemon/108/"
        },
        {
            "name": "koffing",
            "url": "https://pokeapi.co/api/v2/pokemon/109/"
        },
        {
            "name": "weezing",
            "url": "https://pokeapi.co/api/v2/pokemon/110/"
        },
        {
            "name": "rhyhorn",
            "url": "https://pokeapi.co/api/v2/pokemon/111/"
        },
        {
            "name": "rhydon",
            "url": "https://pokeapi.co/api/v2/pokemon/112/"
        },
        {
            "name": "chansey",
            "url": "https://pokeapi.co/api/v2/pokemon/113/"
        },
        {
            "name": "tangela",
            "url": "https://pokeapi.co/api/v2/pokemon/114/"
        },
        {
            "name": "kangaskhan",
            "url": "https://pokeapi.co/api/v2/pokemon/115/"
        },
        {
            "name": "horsea",
            "url": "https://pokeapi.co/api/v2/pokemon/116/"
        },
        {
            "name": "seadra",
            "url": "https://pokeapi.co/api/v2/pokemon/117/"
        },
        {
            "name": "goldeen",
            "url": "https://pokeapi.co/api/v2/pokemon/118/"
        },
        {
            "name": "seaking",
            "url": "https://pokeapi.co/api/v2/pokemon/119/"
        },
        {
            "name": "staryu",
            "url": "https://pokeapi.co/api/v2/pokemon/120/"
        },
        {
            "name": "starmie",
            "url": "https://pokeapi.co/api/v2/pokemon/121/"
        },
        {
            "name": "mr-mime",
            "url": "https://pokeapi.co/api/v2/pokemon/122/"
        },
        {
            "name": "scyther",
            "url": "https://pokeapi.co/api/v2/pokemon/123/"
        },
        {
            "name": "jynx",
            "url": "https://pokeapi.co/api/v2/pokemon/124/"
        },
        {
            "name": "electabuzz",
            "url": "https://pokeapi.co/api/v2/pokemon/125/"
        }
    ]
}